simulation/qsim/D3-28.msim.vcd
$comment
	File created using the following command:
		vcd file D3-28.msim.vcd -direction
$end
$date
	Wed Dec 23 17:46:55 2020
$end
$version
	ModelSim Version 2020.1
$end
$timescale
	1ps
$end

$scope module clocks_vlg_vec_tst $end
$var reg 1 ! xtal_in $end
$var wire 1 " A_stolb $end
$var wire 1 # t3n $end
$var wire 1 $ t4n $end
$var wire 1 % t5n $end
$var wire 1 & t6n $end
$var wire 1 ' t7n $end
$var wire 1 ( t8n $end
$var wire 1 ) t9n $end
$var wire 1 * t10 $end
$var wire 1 + t10n $end
$var wire 1 , t_romn $end

$scope module i1 $end
$var wire 1 - gnd $end
$var wire 1 . vcc $end
$var wire 1 / unknown $end
$var tri1 1 0 devclrn $end
$var tri1 1 1 devpor $end
$var tri1 1 2 devoe $end
$var wire 1 3 t3n~output_o $end
$var wire 1 4 t4n~output_o $end
$var wire 1 5 t5n~output_o $end
$var wire 1 6 t6n~output_o $end
$var wire 1 7 t7n~output_o $end
$var wire 1 8 t8n~output_o $end
$var wire 1 9 t9n~output_o $end
$var wire 1 : t10n~output_o $end
$var wire 1 ; t10~output_o $end
$var wire 1 < t_romn~output_o $end
$var wire 1 = A_stolb~output_o $end
$var wire 1 > xtal_in~input_o $end
$var wire 1 ? xtal_in~inputclkctrl_outclk $end
$var wire 1 @ d33|ff2|q~q $end
$var wire 1 A d33|ff3|q~feeder_combout $end
$var wire 1 B d33|ff3|q~q $end
$var wire 1 C d33|ff4|q~feeder_combout $end
$var wire 1 D d33|ff4|q~q $end
$var wire 1 E d28|ff1|q~feeder_combout $end
$var wire 1 F d28|ff1|q~q $end
$var wire 1 G d28|ff2|q~q $end
$var wire 1 H d28|ff3|q~feeder_combout $end
$var wire 1 I d28|ff3|q~q $end
$var wire 1 J d28|ff4|q~feeder_combout $end
$var wire 1 K d28|ff4|q~q $end
$var wire 1 L WideAnd0~1_combout $end
$var wire 1 M WideAnd0~0_combout $end
$var wire 1 N WideAnd0~combout $end
$var wire 1 O d33|ff1|q~q $end
$var wire 1 P D17BD|comb~1_combout $end
$var wire 1 Q D17BD|comb~0_combout $end
$var wire 1 R D16CD|comb~1_combout $end
$var wire 1 S D16CD|comb~0_combout $end
$upscope $end
$upscope $end
$enddefinitions $end
#0
$dumpvars
0!
1"
0#
0$
0%
0&
0'
0(
0)
1*
0+
1,
0-
1.
x/
10
11
12
03
04
05
06
07
08
09
0:
1;
1<
1=
0>
0?
0@
0A
0B
0C
0D
0E
0F
0G
0H
0I
0J
0K
0L
0M
1N
0O
0P
0Q
0R
0S
$end
#50000
1!
1>
1?
#100000
0!
0>
0?
1O
13
1P
1#
#150000
1!
1>
1?
#200000
0!
0>
0?
1@
14
1$
1A
#250000
1!
1>
1?
#300000
0!
0>
0?
1B
15
1S
1%
1C
0=
0"
#350000
1!
1>
1?
#400000
0!
0>
0?
1D
16
1M
1&
1E
#450000
1!
1>
1?
#500000
0!
0>
0?
1F
17
1'
#550000
1!
1>
1?
#600000
0!
0>
0?
1G
18
1(
1H
#650000
1!
1>
1?
#700000
0!
0>
0?
1I
19
1)
1J
#750000
1!
1>
1?
#800000
0!
0>
0?
1K
0;
1:
1L
1+
0*
0N
#850000
1!
1>
1?
#900000
0!
0>
0?
0O
03
0P
0M
0#
1Q
1N
0<
0,
#950000
1!
1>
1?
#1000000
0!
0>
0?
0@
1O
13
04
0$
1#
0A
#1050000
1!
1>
1?
#1100000
0!
0>
0?
1@
0B
05
14
0S
1R
1$
0%
1A
0C
1=
1"
#1150000
1!
1>
1?
#1200000
0!
0>
0?
1B
0D
06
15
1%
0&
1C
0E
#1250000
1!
1>
1?
#1300000
0!
0>
0?
1D
0F
07
16
1M
0Q
1P
0L
1&
0'
1E
1<
1,
#1350000
1!
1>
1?
#1400000
0!
0>
0?
1F
0G
08
17
1L
1'
0(
0H
#1450000
1!
1>
1?
#1500000
0!
0>
0?
1G
0I
09
18
1(
0)
1H
0J
#1550000
1!
1>
1?
#1600000
0!
0>
0?
1I
0K
1;
0:
19
0R
0L
1)
0+
1*
0N
1J
1S
1N
0=
0"
#1650000
1!
1>
1?
#1700000
0!
0>
0?
1K
0;
1:
1L
1+
0*
0N
#1750000
1!
1>
1?
#1800000
0!
0>
0?
0O
03
0P
0M
0#
1Q
1N
0<
0,
#1850000
1!
1>
1?
#1900000
0!
0>
0?
0@
1O
13
04
0$
1#
0A
#1950000
1!
1>
1?
#2000000
0!
0>
0?
1@
0B
05
14
0S
1R
1$
0%
1A
0C
1=
1"
#2050000
1!
1>
1?
#2100000
0!
0>
0?
1B
0D
06
15
1%
0&
1C
0E
#2150000
1!
1>
1?
#2200000
0!
0>
0?
1D
0F
07
16
1M
0Q
1P
0L
1&
0'
1E
1<
1,
#2250000
1!
1>
1?
#2300000
0!
0>
0?
1F
0G
08
17
1L
1'
0(
0H
#2350000
1!
1>
1?
#2400000
0!
0>
0?
1G
0I
09
18
1(
0)
1H
0J
#2450000
1!
1>
1?
#2500000
0!
0>
0?
1I
0K
1;
0:
19
0R
0L
1)
0+
1*
0N
1J
1S
1N
0=
0"
#2550000
1!
1>
1?
#2600000
0!
0>
0?
1K
0;
1:
1L
1+
0*
0N
#2650000
1!
1>
1?
#2700000
0!
0>
0?
0O
03
0P
0M
0#
1Q
1N
0<
0,
#2750000
1!
1>
1?
#2800000
0!
0>
0?
0@
1O
13
04
0$
1#
0A
#2850000
1!
1>
1?
#2900000
0!
0>
0?
1@
0B
05
14
0S
1R
1$
0%
1A
0C
1=
1"
#2950000
1!
1>
1?
#3000000
0!
0>
0?
1B
0D
06
15
1%
0&
1C
0E
#3050000
1!
1>
1?
#3100000
0!
0>
0?
1D
0F
07
16
1M
0Q
1P
0L
1&
0'
1E
1<
1,
#3150000
1!
1>
1?
#3200000
0!
0>
0?
1F
0G
08
17
1L
1'
0(
0H
#3250000
1!
1>
1?
#3300000
0!
0>
0?
1G
0I
09
18
1(
0)
1H
0J
#3350000
1!
1>
1?
#3400000
0!
0>
0?
1I
0K
1;
0:
19
0R
0L
1)
0+
1*
0N
1J
1S
1N
0=
0"
#3450000
1!
1>
1?
#3500000
0!
0>
0?
1K
0;
1:
1L
1+
0*
0N
#3550000
1!
1>
1?
#3600000
0!
0>
0?
0O
03
0P
0M
0#
1Q
1N
0<
0,
#3650000
1!
1>
1?
#3700000
0!
0>
0?
0@
1O
13
04
0$
1#
0A
#3750000
1!
1>
1?
#3800000
0!
0>
0?
1@
0B
05
14
0S
1R
1$
0%
1A
0C
1=
1"
#3850000
1!
1>
1?
#3900000
0!
0>
0?
1B
0D
06
15
1%
0&
1C
0E
#3950000
1!
1>
1?
